[
  {
    "id": 1,
    "investedAmount": 100.00,
    "returnedAmount": 110.00,
    "investedDate": "2016-04-09",
    "returnedDate": "2016-05-28",
    "clientId": 1
  },
  {
    "id": 2,
    "investedAmount": 600.00,
    "returnedAmount": 0.00,
    "investedDate": "2016-07-01",
    "returnedDate": "",
    "clientId": 4
  },
  {
    "id": 3,
    "investedAmount": 200.00,
    "returnedAmount": 215.00,
    "investedDate": "2016-07-03",
    "returnedDate": "2016-08-10",
    "clientId": 2
  },
  {
    "id": 4,
    "investedAmount": 1000.00,
    "returnedAmount": 1070.00,
    "investedDate": "2015-05-06",
    "returnedDate": "2015-06-07",
    "clientId": 3
  },
  {
    "id": 5,
    "investedAmount": 100.00,
    "returnedAmount": 120.00,
    "investedDate": "2014-08-09",
    "returnedDate": "2014-09-08",
    "clientId": 3
  },
  {
    "id": 6,
    "investedAmount": 3000.00,
    "returnedAmount": 3200.00,
    "investedDate": "2015-11-21",
    "returnedDate": "2015-12-25",
    "clientId": 1
  },
  {
    "id": 7,
    "investedAmount": 50.00,
    "returnedAmount": 70.00,
    "investedDate": "2016-09-28",
    "returnedDate": "2016-10-22",
    "clientId": 1
  },
  {
    "id": 8,
    "investedAmount": 400.00,
    "returnedAmount": 430.00,
    "investedDate": "2016-10-22",
    "returnedDate": "2016-11-10",
    "clientId": 2
  },
  {
    "id": 9,
    "investedAmount": 700.00,
    "returnedAmount": 740.00,
    "investedDate": "2016-07-09",
    "returnedDate": "2016-09-09",
    "clientId": 4
  },
  {
    "id": 10,
    "investedAmount": 200.00,
    "returnedAmount": 0.00,
    "investedDate": "2015-10-10",
    "returnedDate": "",
    "clientId": 4
  },
  {
    "id": 11,
    "investedAmount": 180.00,
    "returnedAmount": 210.00,
    "investedDate": "2016-09-09",
    "returnedDate": "2016-10-28",
    "clientId": 1
  },
  {
    "id": 12,
    "investedAmount": 800.00,
    "returnedAmount": 0.00,
    "investedDate": "2016-07-01",
    "returnedDate": "",
    "clientId": 3
  },
  {
    "id": 13,
    "investedAmount": 500.00,
    "returnedAmount": 615.00,
    "investedDate": "2016-05-13",
    "returnedDate": "2016-06-10",
    "clientId": 2
  },
  {
    "id": 14,
    "investedAmount": 100.00,
    "returnedAmount": 0.00,
    "investedDate": "2016-06-08",
    "returnedDate": "",
    "clientId": 3
  },
  {
    "id": 15,
    "investedAmount": 150.00,
    "returnedAmount": 190.00,
    "investedDate": "2016-07-09",
    "returnedDate": "2016-08-08",
    "clientId": 3
  },
  {
    "id": 16,
    "investedAmount": 300.00,
    "returnedAmount": 380.00,
    "investedDate": "2015-12-21",
    "returnedDate": "2016-01-25",
    "clientId": 1
  },
  {
    "id": 17,
    "investedAmount": 150.00,
    "returnedAmount": 190.00,
    "investedDate": "2016-19-27",
    "returnedDate": "2016-11-22",
    "clientId": 1
  },
  {
    "id": 18,
    "investedAmount": 1400.00,
    "returnedAmount": 0.00,
    "investedDate": "2016-11-22",
    "returnedDate": "",
    "clientId": 2
  },
  {
    "id": 19,
    "investedAmount": 70.00,
    "returnedAmount": 74.00,
    "investedDate": "2015-03-09",
    "returnedDate": "2015-04-09",
    "clientId": 4
  },
  {
    "id": 20,
    "investedAmount": 1100.00,
    "returnedAmount": 1205.00,
    "investedDate": "2016-10-10",
    "returnedDate": "2016-11-11",
    "clientId": 4
  }
]
