[
  {
    "id": 1,
    "amount": 120.00,
    "repayAmount": 120.00,
    "agreementRepayDate": "2016-10-09",
    "actualRepayDate": "2016-10-08",
    "startDate": "2016-09-09",
    "repayed": true,
    "clientId": 5
  },
  {
    "id": 2,
    "amount": 300.00,
    "repayAmount": 320.00,
    "agreementRepayDate": "2016-11-04",
    "actualRepayDate": "",
    "startDate": "2016-09-12",
    "repayed": false,
    "clientId": 6
  },
  {
    "id": 3,
    "amount": 200.00,
    "repayAmount": 202.00,
    "agreementRepayDate": "2016-11-18",
    "actualRepayDate": "2016-11-18",
    "startDate": "2016-10-29",
    "repayed": true,
    "clientId": 7
  },
  {
    "id": 4,
    "amount": 20.00,
    "repayAmount": 20.00,
    "agreementRepayDate": "2016-10-29",
    "actualRepayDate": "",
    "startDate": "2016-10-01",
    "repayed": false,
    "clientId": 8
  },
  {
    "id": 5,
    "amount": 45.00,
    "repayAmount": 46.00,
    "agreementRepayDate": "2016-10-28",
    "actualRepayDate": "2016-10-26",
    "startDate": "2016-10-12",
    "repayed": true,
    "clientId": 9
  },
  {
    "id": 6,
    "amount": 380.00,
    "repayAmount": 400.00,
    "agreementRepayDate": "2016-11-30",
    "actualRepayDate": "",
    "startDate": "2016-10-12",
    "repayed": false,
    "clientId": 5
  },
  {
    "id": 7,
    "amount": 110.00,
    "repayAmount": 111.00,
    "agreementRepayDate": "2016-11-10",
    "actualRepayDate": "2016-11-10",
    "startDate": "2016-10-19",
    "repayed": true,
    "clientId": 5
  },
  {
    "id": 8,
    "amount": 120.00,
    "repayAmount": 120.00,
    "agreementRepayDate": "2016-10-22",
    "actualRepayDate": "2016-10-22",
    "startDate": "2016-10-10",
    "repayed": true,
    "clientId": 7
  },
  {
    "id": 9,
    "amount": 500.00,
    "repayAmount": 520.00,
    "agreementRepayDate": "2016-11-30",
    "actualRepayDate": "2016-11-30",
    "startDate": "2016-10-01",
    "repayed": true,
    "clientId": 8
  },
  {
    "id": 10,
    "amount": 89.00,
    "repayAmount": 90.00,
    "agreementRepayDate": "2016-10-10",
    "actualRepayDate": "2016-10-09",
    "startDate": "2016-09-20",
    "repayed": true,
    "clientId": 8
  },
  {
    "id": 11,
    "amount": 700.00,
    "repayAmount": 720.00,
    "agreementRepayDate": "2016-11-30",
    "actualRepayDate": "",
    "startDate": "2016-10-20",
    "repayed": false,
    "clientId": 8
  },
  {
    "id": 12,
    "amount": 455.00,
    "repayAmount": 475.00,
    "agreementRepayDate": "2016-11-27",
    "actualRepayDate": "",
    "startDate": "2016-10-09",
    "repayed": false,
    "clientId": 6
  },
  {
    "id": 13,
    "amount": 210.00,
    "repayAmount": 220.00,
    "agreementRepayDate": "2016-07-13",
    "actualRepayDate": "2016-07-13",
    "startDate": "2016-07-01",
    "repayed": true,
    "clientId": 6
  },
  {
    "id": 14,
    "amount": 15.00,
    "repayAmount": 16.00,
    "agreementRepayDate": "2016-06-05",
    "actualRepayDate": "2016-06-01",
    "startDate": "2016-05-08",
    "repayed": true,
    "clientId": 7
  },
  {
    "id": 15,
    "amount": 45.00,
    "repayAmount": 47.00,
    "agreementRepayDate": "2016-03-17",
    "actualRepayDate": "2016-03-16",
    "startDate": "2016-03-02",
    "repayed": true,
    "clientId": 8
  },
  {
    "id": 16,
    "amount": 67.00,
    "repayAmount": 69.00,
    "agreementRepayDate": "2016-01-02",
    "actualRepayDate": "2016-01-02",
    "startDate": "2015-12-25",
    "repayed": true,
    "clientId": 9
  },
  {
    "id": 17,
    "amount": 85.00,
    "repayAmount": 93.00,
    "agreementRepayDate": "2016-02-26",
    "actualRepayDate": "2016-02-23",
    "startDate": "2016-01-24",
    "repayed": true,
    "clientId": 8
  },
  {
    "id": 18,
    "amount": 87.00,
    "repayAmount": 94.00,
    "agreementRepayDate": "2016-04-26",
    "actualRepayDate": "2016-04-26",
    "startDate": "2016-03-26",
    "repayed": true,
    "clientId": 6
  },
  {
    "id": 19,
    "amount": 145.00,
    "repayAmount": 155.00,
    "agreementRepayDate": "2016-07-27",
    "actualRepayDate": "2016-07-28",
    "startDate": "2016-06-29",
    "repayed": true,
    "clientId": 7
  },
  {
    "id": 20,
    "amount": 134.00,
    "repayAmount": 150.00,
    "agreementRepayDate": "2016-08-23",
    "actualRepayDate": "2016-08-10",
    "startDate": "2016-08-01",
    "repayed": true,
    "clientId": 8
  }
]
